{
  "project_info": {
    "project_number": "355759427893",
    "firebase_url": "https://family-locator-17d3e.firebaseio.com",
    "project_id": "family-locator-17d3e",
    "storage_bucket": "family-locator-17d3e.appspot.com"
  },
  "client": [
    {
      "client_info": {
        "mobilesdk_app_id": "1:355759427893:android:029b05e319cc3415",
        "android_client_info": {
          "package_name": "casa.com.familytracker"
        }
      },
      "oauth_client": [
        {
          "client_id": "355759427893-as3dovpvo6322fk1ff3vfphgrlm1ij4n.apps.googleusercontent.com",
          "client_type": 1,
          "android_info": {
            "package_name": "casa.com.familytracker",
            "certificate_hash": "d36978cc653d10751dcb6be99b16b7491dcef988"
          }
        },
        {
          "client_id": "355759427893-aa66od4rrqmf6js1t5ftp0efub5mc59s.apps.googleusercontent.com",
          "client_type": 3
        }
      ],
      "api_key": [
        {
          "current_key": "AIzaSyAPK9kTllMAZnjZ9ptFhG-Ex3y_35lK_TQ"
        }
      ],
      "services": {
        "analytics_service": {
          "status": 1
        },
        "appinvite_service": {
          "status": 2,
          "other_platform_oauth_client": [
            {
              "client_id": "355759427893-aa66od4rrqmf6js1t5ftp0efub5mc59s.apps.googleusercontent.com",
              "client_type": 3
            }
          ]
        },
        "ads_service": {
          "status": 2
        }
      }
    }
  ],
  "configuration_version": "1"
}